<svg width="30" height="48" viewBox="0 0 30 48" fill="none" xmlns="http://www.w3.org/2000/svg">
<path d="M5.05027 1.36682L2.31657 4.10051L22.2151 24L2.31657 43.8995L5.05027 46.6331L27.6834 24L5.05027 1.36682Z" fill="white"/>
<path d="M5.0493 48L29.0512 24L5.05027 0L0.949735 4.10053L20.8482 24L0.94877 43.8995L5.0493 48ZM26.3166 24L5.0493 45.2663L3.68246 43.8995L23.5819 24L3.68342 4.10053L5.05027 2.73369L26.3166 24Z" fill="white"/>
</svg>
